{
  "project_info": {
    "project_number": "502501382303",
    "firebase_url": "https://budbasic-patient.firebaseio.com",
    "project_id": "budbasic-patient",
    "storage_bucket": "budbasic-patient.appspot.com"
  },
  "client": [
    {
      "client_info": {
        "mobilesdk_app_id": "1:502501382303:android:edd5982535a07100",
        "android_client_info": {
          "package_name": "com.budbasic"
        }
      },
      "oauth_client": [
        {
          "client_id": "502501382303-t5uhcrmp5fifjl81iklmciruilv4bhep.apps.googleusercontent.com",
          "client_type": 1,
          "android_info": {
            "package_name": "com.budbasic",
            "certificate_hash": "5ded0d31ff1b36340d14368afdb2d3d11f5c9769"
          }
        },
        {
          "client_id": "502501382303-u40erpr51bp3vjn4ji88qpuslcft04bb.apps.googleusercontent.com",
          "client_type": 3
        }
      ],
      "api_key": [
        {
          "current_key": "AIzaSyCB7CdZpG2Uq0GqFEExY1JGvYtDyUL5uOg"
        }
      ],
      "services": {
        "analytics_service": {
          "status": 1
        },
        "appinvite_service": {
          "status": 2,
          "other_platform_oauth_client": [
            {
              "client_id": "502501382303-u40erpr51bp3vjn4ji88qpuslcft04bb.apps.googleusercontent.com",
              "client_type": 3
            }
          ]
        },
        "ads_service": {
          "status": 2
        }
      }
    },
    {
      "client_info": {
        "mobilesdk_app_id": "1:502501382303:android:6d854c799aeb1815",
        "android_client_info": {
          "package_name": "com.budbasic.posconsole"
        }
      },
      "oauth_client": [
        {
          "client_id": "502501382303-tckosr289h786g5itkttn3pd12dkl6mp.apps.googleusercontent.com",
          "client_type": 1,
          "android_info": {
            "package_name": "com.budbasic.posconsole",
            "certificate_hash": "5ded0d31ff1b36340d14368afdb2d3d11f5c9769"
          }
        },
        {
          "client_id": "502501382303-u40erpr51bp3vjn4ji88qpuslcft04bb.apps.googleusercontent.com",
          "client_type": 3
        }
      ],
      "api_key": [
        {
          "current_key": "AIzaSyCB7CdZpG2Uq0GqFEExY1JGvYtDyUL5uOg"
        }
      ],
      "services": {
        "analytics_service": {
          "status": 1
        },
        "appinvite_service": {
          "status": 2,
          "other_platform_oauth_client": [
            {
              "client_id": "502501382303-u40erpr51bp3vjn4ji88qpuslcft04bb.apps.googleusercontent.com",
              "client_type": 3
            }
          ]
        },
        "ads_service": {
          "status": 2
        }
      }
    }
  ],
  "configuration_version": "1"
}